\relax 
\providecommand\hyper@newdestlabel[2]{}
\providecommand\HyperFirstAtBeginDocument{\AtBeginDocument}
\HyperFirstAtBeginDocument{\ifx\hyper@anchor\@undefined
\global\let\oldcontentsline\contentsline
\gdef\contentsline#1#2#3#4{\oldcontentsline{#1}{#2}{#3}}
\global\let\oldnewlabel\newlabel
\gdef\newlabel#1#2{\newlabelxx{#1}#2}
\gdef\newlabelxx#1#2#3#4#5#6{\oldnewlabel{#1}{{#2}{#3}}}
\AtEndDocument{\ifx\hyper@anchor\@undefined
\let\contentsline\oldcontentsline
\let\newlabel\oldnewlabel
\fi}
\fi}
\global\let\hyper@last\relax 
\gdef\HyperFirstAtBeginDocument#1{#1}
\providecommand*\HyPL@Entry[1]{}
\HyPL@Entry{0<</S/D>>}
\babel@aux{french}{}
\@writefile{toc}{\contentsline {section}{\numberline {1}Choix de l'implémentation}{2}{section.1}}
\@writefile{toc}{\contentsline {section}{\numberline {2}Exercice 1: Parité}{2}{section.2}}
\@writefile{toc}{\contentsline {section}{\numberline {3}Exercice 2: Polynome}{2}{section.3}}
\@writefile{toc}{\contentsline {section}{\numberline {4}Exercice 3: Hamming}{2}{section.4}}
\@writefile{toc}{\contentsline {subsection}{\numberline {4.1}Question 1: Combinaisons Linéaires}{2}{subsection.4.1}}
\@writefile{toc}{\contentsline {subsection}{\numberline {4.2}Question 2: Poid Minimum}{2}{subsection.4.2}}
\@writefile{toc}{\contentsline {subsection}{\numberline {4.3}Question 3: Raccourci 1 fois}{3}{subsection.4.3}}
\@writefile{toc}{\contentsline {subsection}{\numberline {4.4}Question 4: Raccourci 3 fois}{3}{subsection.4.4}}
\@writefile{toc}{\contentsline {subsection}{\numberline {4.5}Question 5: Autre Possibilité}{3}{subsection.4.5}}
\@writefile{toc}{\contentsline {subsection}{\numberline {4.6}Question 6: Hamming(n,k)}{3}{subsection.4.6}}
\@writefile{toc}{\contentsline {subsection}{\numberline {4.7}Question 7: Methode pour k=8}{3}{subsection.4.7}}
\@writefile{toc}{\contentsline {subsection}{\numberline {4.8}Question 8: G(12,8) H(12,4)}{4}{subsection.4.8}}
\@writefile{toc}{\contentsline {subsection}{\numberline {4.9}Question 9: Coder}{4}{subsection.4.9}}
\@writefile{toc}{\contentsline {section}{\numberline {5}Dificultés rencontrés}{4}{section.5}}
