\relax 
\providecommand\hyper@newdestlabel[2]{}
\providecommand\HyperFirstAtBeginDocument{\AtBeginDocument}
\HyperFirstAtBeginDocument{\ifx\hyper@anchor\@undefined
\global\let\oldcontentsline\contentsline
\gdef\contentsline#1#2#3#4{\oldcontentsline{#1}{#2}{#3}}
\global\let\oldnewlabel\newlabel
\gdef\newlabel#1#2{\newlabelxx{#1}#2}
\gdef\newlabelxx#1#2#3#4#5#6{\oldnewlabel{#1}{{#2}{#3}}}
\AtEndDocument{\ifx\hyper@anchor\@undefined
\let\contentsline\oldcontentsline
\let\newlabel\oldnewlabel
\fi}
\fi}
\global\let\hyper@last\relax 
\gdef\HyperFirstAtBeginDocument#1{#1}
\providecommand*\HyPL@Entry[1]{}
\HyPL@Entry{0<</S/D>>}
\babel@aux{french}{}
\@writefile{toc}{\contentsline {section}{\numberline {1}Choix de l'implémentation}{2}{section.1}}
\@writefile{toc}{\contentsline {section}{\numberline {2}Les scripts et choix de paramètres pour mpi}{2}{section.2}}
\@writefile{toc}{\contentsline {subsection}{\numberline {2.1}Les scripts}{2}{subsection.2.1}}
\@writefile{lof}{\contentsline {figure}{\numberline {1}{\ignorespaces Courbes de Temps}}{3}{figure.1}}
\@writefile{lof}{\contentsline {figure}{\numberline {2}{\ignorespaces Courbes du Speedup}}{3}{figure.2}}
\@writefile{lof}{\contentsline {figure}{\numberline {3}{\ignorespaces Courbes d'efficacité}}{3}{figure.3}}
\@writefile{toc}{\contentsline {subsection}{\numberline {2.2}Choix des nombres de processus, des nombres de processus par machine, et du nombre de machines}{4}{subsection.2.2}}
\@writefile{toc}{\contentsline {section}{\numberline {3}Explication des mesures obtenues}{4}{section.3}}
\@writefile{toc}{\contentsline {section}{\numberline {4}Dificultés rencontrés}{4}{section.4}}
